Matthew Afoakwah Portfolio
…
#Attributes in device_type
unique(Sales_Export_2019_2020$device_type)    

## [1] "Mobile" "PC"     "Tablet"

#Removing duplicates
distinct(Sales_Export_2019_2020)

## # A tibble: 1,000 × 10
##    country  order…¹   cost date  categ…² custo…³ sales…⁴ sales…⁵ devic…⁶ order…⁷
##    <chr>      <dbl>  <dbl> <chr> <chr>   <chr>   <chr>   <chr>   <chr>   <chr>  
##  1 Sweden    17524. 1.41e4 2/12… Books   Goldne… Maxie … Madelo… Mobile  70-051…
##  2 Finland  116563. 9.28e4 9/26… Games   Hilll-… Hube C… Wat Bo… Mobile  28-658…
##  3 Portugal 296466. 2.57e5 7/11… Clothi… Larkin… Celine… Smitty… PC      58-770…
##  4 Portugal  74532. 5.98e4 4/2/… Beauty  Hessel… Celine… Aureli… PC      14-670…
##  5 Spain    178763. 1.47e5 12/2… Games   Johns … Emalia… Bertha… Tablet  15-876…
##  6 Spain     84900. 7.37e4 7/14… Clothi… Farrel… Emalia… Perri … PC      60-699…
##  7 Portugal  71620. 6.22e4 2/5/… Books   Schoen… Celine… Smitty… PC      69-625…
##  8 UK       156585. 1.27e5 8/30… Access… Hermis… Jessam… Winny … PC      64-576…
##  9 Portugal  78461. 6.35e4 5/10… Applia… Hessel… Celine… Smitty… Mobile  91-412…
## 10 France    64828. 5.60e4 1/20… Applia… Gislas… Othell… Maighd… PC      62-331…
## # … with 990 more rows, and abbreviated variable names ¹​order_value_EUR,
## #   ²​category, ³​customer_name, ⁴​sales_manager, ⁵​sales_rep, ⁶​device_type,
## #   ⁷​order_id
…
